{
    "total": 19185671,
    "offset": 150,
    "next": 250,
    "data": [
        {
            "paperId": "89b1645beadbd58851c246fd736599d1b4f609de",
            "title": "Meet Charles, big data query advisor"
        },
        {
            "paperId": "c2565746c6332a94e824994106ca27b211ab5c6e",
            "title": "The BigDAWG Polystore System"
        },
        {
            "paperId": "3b191386bf16b18dcf0c532b5fb40ac961a73ed7",
            "title": "Optimized index structures for querying RDF from the Web"
        },
        {
            "paperId": "5e93850f8039dbe8bd771405d6bf883556361e28",
            "title": "Storing semistructured data with STORED"
        },
        {
            "paperId": "3eb91e3a753bd9c165551a3696fb1ea443752d56",
            "title": "Representing and Querying Correlated Tuples in Probabilistic Databases"
        },
        {
            "paperId": "e2e1734776ad064983bf3dc5ecda0269e37544d1",
            "title": "Linked Data query processing"
        },
        {
            "paperId": "96aa5f0196b6ca96340f55e229c37ba8e106ddb7",
            "title": "LHD: Optimising Linked Data Query Processing Using Parallelisation"
        },
        {
            "paperId": "4edb9586eba943c3003cd084614d93ba084528dc",
            "title": "On the representation and querying of sets of possible worlds"
        },
        {
            "paperId": "efa9473b74de6c9897ddf5b8245dd90921815b6d",
            "title": "Landmarks: a new model for similarity-based pattern querying in time series databases"
        },
        {
            "paperId": "f7f8e96b4d64f7789136dc482cde0e27d9a1cac8",
            "title": "Materializing and Querying Learned Knowledge"
        },
        {
            "paperId": "e05bc8bd1f3174bea226ce5de453f14d050560d1",
            "title": "Regular path queries on graphs with data"
        },
        {
            "paperId": "913beb8d70383bacaf7f0133d9a88ca592542af7",
            "title": "Region-based image querying"
        },
        {
            "paperId": "183b282fc000f213791aa25fc75c0bcae43fc564",
            "title": "Modeling and querying moving objects in networks"
        },
        {
            "paperId": "d76161ad7565a83258493b0e6a16af5cd494b54e",
            "title": "Querying and Managing Provenance through User Views in Scientific Workflows"
        },
        {
            "paperId": "fbcaf5839425a0fbaef2ea32899c457f84139b98",
            "title": "Semiring-annotated data: queries and provenance?"
        },
        {
            "paperId": "88b98d7b20ede342fe471b2889ace70d082e4db7",
            "title": "Query by humming: musical information retrieval in an audio database"
        },
        {
            "paperId": "ebfb0576a320089983158ab64e8e8c69bdc303bc",
            "title": "The Combined Approach to Ontology-Based Data Access"
        },
        {
            "paperId": "e07642636a1ef8fe95237652005c35e03da018c9",
            "title": "Data Models and Query Languages for Linked Geospatial Data"
        },
        {
            "paperId": "d3c8324fa4861531686db0cf2fa279bd313541d9",
            "title": "FleXPath: flexible structure and full-text querying for XML"
        },
        {
            "paperId": "484bd0dbcf40f45052929bd31ee646d8c8672477",
            "title": "\u03a1-Queries: enabling querying for semantic associations on the semantic web"
        },
        {
            "paperId": "085da455c184cf0ca1828b4125a88ea5e8e8ad90",
            "title": "Matrix \"Bit\" loaded: a scalable lightweight join query processor for RDF data"
        },
        {
            "paperId": "58d8efd380226ce09ce815da88dfae13ec215cf6",
            "title": "Data summaries for on-demand queries over linked data"
        },
        {
            "paperId": "f88c68975c9fbaf1bf35004558d5228d95121ab8",
            "title": "EnsMart: a generic system for fast and flexible access to biological data."
        },
        {
            "paperId": "1059fd0af6e6d8ac8962cb0c1899e4b027541402",
            "title": "QNet: A Tool for Querying Protein Interaction Networks"
        },
        {
            "paperId": "3d7a9edf9ef874cde4754f35d5e88c29ef1163eb",
            "title": "RQL: a declarative query language for RDF"
        },
        {
            "paperId": "d06b1a521cc1553ea8e823702005f33283074360",
            "title": "A declarative language for querying and restructuring the Web"
        },
        {
            "paperId": "234d93b62ecdf02249333cad9ba4e528842dc02f",
            "title": "Comparing data summaries for processing live queries over Linked Data"
        },
        {
            "paperId": "074896a318b651212c4a08099fc33b5a3c26a2f9",
            "title": "Federated Data Management and Query Optimization for Linked Open Data"
        },
        {
            "paperId": "b9da38f57b7caf258c2a28790c52c905f61e4db3",
            "title": "Cleaning and querying noisy sensors"
        },
        {
            "paperId": "9d4286884928d59fbaf1edbca41f5c5266e42b70",
            "title": "Working Models for Uncertain Data"
        },
        {
            "paperId": "400198c40e1131047b8408fe9921e310a3f5bb6d",
            "title": "Querying Shapes of Histories"
        },
        {
            "paperId": "4651ee5c01992b7264e488139c982e98101efc48",
            "title": "Querying with Intrinsic Preferences"
        },
        {
            "paperId": "0f555a3b136ba03926b9e76228c2ede255f305c8",
            "title": "Querying documents in object databases"
        },
        {
            "paperId": "3c73e1410b29e1c761568eeb260ed440c7b1da28",
            "title": "Electronically Querying for the Provenance of Entities"
        },
        {
            "paperId": "3fdcb63f3bac5d8a68bf93fc3272b8023c6c302c",
            "title": "Querying business processes"
        },
        {
            "paperId": "a0706370b9dd89a55beb0c489bd3127ce6b764f8",
            "title": "DEVise: integrated querying and visual exploration of large datasets"
        },
        {
            "paperId": "84bdc9bb3d8d04f811da52c3481ef035069a264c",
            "title": "GraphDB: Modeling and Querying Graphs in Databases"
        },
        {
            "paperId": "671aa6e64bddd3f61166f670f4ec064c7194f0ae",
            "title": "MONDRIAN: Annotating and Querying Databases through Colors and Blocks"
        },
        {
            "paperId": "ec6dbc6c8ec39ae84895321d4aa7f97544880f81",
            "title": "Querying about the past, the present, and the future in spatio-temporal databases"
        },
        {
            "paperId": "8c5cad7cd96671e8c5cc25b2952ff1af957fde1a",
            "title": "Representing and querying XML with incomplete information"
        },
        {
            "paperId": "478707d38e229d8ed8d0828e00d2feee9d15aea3",
            "title": "On graph query optimization in large networks"
        },
        {
            "paperId": "35403186e09d23c644d795c162c2664182d6cc82",
            "title": "Symbolic Description and Visual Querying of Image Sequences Using Spatio-Temporal Logic"
        },
        {
            "paperId": "965e2839ad43635c4f2a837a47129c465e1ab51c",
            "title": "Querying and computing with BioCyc databases"
        },
        {
            "paperId": "13ae94e9f04927bb49bad2ef93ccc413e4c25a4b",
            "title": "BBQ: A Visual Interface for Integrated Browsing and Querying of XML"
        },
        {
            "paperId": "1d19a48cb7d0d3c96c3a8770f50f3e7d8533596a",
            "title": "RAL: An Algebra for Querying RDF"
        },
        {
            "paperId": "497353d4de82d6c43349e07fe7d579762159d4c6",
            "title": "Querying Moving Objects in SECONDO"
        },
        {
            "paperId": "142076521067f39aa0f2b86a01150561257c4ec5",
            "title": "Querying Graph Databases"
        },
        {
            "paperId": "482441db1c167bdb91bbbebc71c9bf7069b1e3a6",
            "title": "Querying Semistructured Heterogeneous Information"
        },
        {
            "paperId": "78b1207b40678edf08d618fab0cc42e5c1f5972c",
            "title": "Querying multiple sets of discovered rules"
        },
        {
            "paperId": "9a02fc4650f7d75a6aea07bfaafcfd4fb69ad8d1",
            "title": "Semantic caching in large scale querying systems"
        },
        {
            "paperId": "74f812b531ec568a82a5935f53a5c82db466f9d2",
            "title": "Querying in Highly Mobile Distributed Environments"
        },
        {
            "paperId": "89f8a1e47d69c1a2236d09d45584b2d85adb7594",
            "title": "Querying and Updating the File"
        },
        {
            "paperId": "18e55300f005f4b98d80326a4633fa963230d269",
            "title": "\"One Size Fits All\": An Idea Whose Time Has Come and Gone?"
        },
        {
            "paperId": "ea32d48a0528d5af7d78f2d0da2d28c7edb6d16c",
            "title": "A Comparison of Current Graph Database Models"
        },
        {
            "paperId": "8d539f60917febc52326e3cb6ae88171497e22ca",
            "title": "Querying database knowledge"
        },
        {
            "paperId": "c41b39c18e3cd95ab6e4f7881517512fbd810d1d",
            "title": "An introduction to spatial database systems"
        },
        {
            "paperId": "bcad76ae5cea05bad85fd6b2b08aa30a801d9a3b",
            "title": "PGQL: a property graph query language"
        },
        {
            "paperId": "53fa7e87d998204b92a31b88be71f6e218f59231",
            "title": "Distributed top-k monitoring"
        },
        {
            "paperId": "3192f2ac843484855e15ab25abf161e2fe8c5003",
            "title": "Global Viewing of Heterogeneous Data Sources"
        },
        {
            "paperId": "183603b4fbe3ec3be3efe6aaee58a2567df9b558",
            "title": "Processing complex aggregate queries over data streams"
        },
        {
            "paperId": "e9ff4ec8c381b203955e604076dd471b2ba0f848",
            "title": "On the provenance of non-answers to queries over extracted data"
        },
        {
            "paperId": "f42564f3e8516ac055412f7024c49edb3f14f4e4",
            "title": "Online Filtering, Smoothing and Probabilistic Modeling of Streaming data"
        },
        {
            "paperId": "ee80cb59cc25f2664521f15525b89a530063aa48",
            "title": "A Survey on Temporal Data Warehousing"
        },
        {
            "paperId": "bc037b5bf6bb0b64db0b49c762ee8c944d27f89a",
            "title": "XR-tree: indexing XML data for efficient structural joins"
        },
        {
            "paperId": "55d0b6a8db49630d6b26d2959701745585567717",
            "title": "OLAP over uncertain and imprecise data"
        },
        {
            "paperId": "eb055c353a195852872fc6714cbb56750bf9f4ba",
            "title": "Indexing uncertain data"
        },
        {
            "paperId": "05957a6e9398d79f4c855f5029f7cbd735229206",
            "title": "Brighthouse: an analytic data warehouse for ad-hoc queries"
        },
        {
            "paperId": "3fa34251a520679fdf3ea850941e9ccd21a12dd4",
            "title": "Learning to create data-integrating queries"
        },
        {
            "paperId": "c11169fbf077d8e762a476d3b38b14fc84edd8ab",
            "title": "Efficiently supporting ad hoc queries in large datasets of time sequences"
        },
        {
            "paperId": "9d1aef4325f73bc5d815db1eb0b2ecb5d0909037",
            "title": "A data model and query language for EXODUS"
        },
        {
            "paperId": "e2ad92d7da5149bf1437e7c8ab2172529d85f00d",
            "title": "XPath queries on streaming data"
        },
        {
            "paperId": "9bdf6d88187f7773a258c38800dbe2a574132526",
            "title": "Interactive Analysis of Web-Scale Data"
        },
        {
            "paperId": "710adbf4cb1a10ba893746e17f662dfd537f0dc5",
            "title": "Semantic Streams: A Framework for Composable Semantic Interpretation of Sensor Data"
        },
        {
            "paperId": "3b78e728e4496ef90e279bd17b5614be76dcc42e",
            "title": "XPRESS: a queriable compression for XML data"
        },
        {
            "paperId": "552d9aef6d1b7ec3084e8a58b2d74b16d33cabad",
            "title": "Balancing confidentiality and efficiency in untrusted relational DBMSs"
        },
        {
            "paperId": "f3103b548e8ea7d16ab1896339aedf43ad21a5d2",
            "title": "Towards a Declarative Query and Transformation Language for XML and Semistructured Data: Simulation Unification"
        },
        {
            "paperId": "8ca073f9ab5a4a870f4e31f377e8431c138c1a3f",
            "title": "Beyond Independence: Probabilistic Models for Query Approximation on Binary Transaction Data"
        },
        {
            "paperId": "05d95ec38ab456314e7468e5fdcce0ceada19c51",
            "title": "Representative objects: concise representations of semistructured, hierarchical data"
        },
        {
            "paperId": "8db48c6dee55a5d10e1c04c38bfb6780605f6cb7",
            "title": "An XML query engine for network-bound data"
        },
        {
            "paperId": "8631ae4a69f409ed09f451867c3ef4bf17129b79",
            "title": "User-Adaptive Exploration of Multidimensional Data"
        },
        {
            "paperId": "4e0448bb1b94e477f95e82ec8976d24241a5a52e",
            "title": "An asymptotically optimal multiversion B-tree\n"
        },
        {
            "paperId": "2c8c25f368882393d738c89b68801adda178a783",
            "title": "PSoup: a system for streaming queries over streaming data"
        },
        {
            "paperId": "0db3d4f4415fb91e6ce8f0d6877809b0b9492d0b",
            "title": "The Advanced Video Information System: data structures and query processing\n"
        },
        {
            "paperId": "6cf33c45a0be03f4fad126f7b604cd6a2961f190",
            "title": "A Data Transformation System for Biological Data Sources"
        },
        {
            "paperId": "fe7bbe91a9d603f2bd65943c5f2fff1bf1543655",
            "title": "Query rewriting for semistructured data"
        },
        {
            "paperId": "1f8340db65b7cfb7206d7c95cf78774ccb19b848",
            "title": "A Survey of Data Management in Peer-to-Peer Systems"
        },
        {
            "paperId": "00a84392c002e757167539c3768708257c58b707",
            "title": "Answering Structured Queries on Unstructured Data"
        },
        {
            "paperId": "1cf2ab333eadbd5f4858eea8204ad6ab2962e1d5",
            "title": "Gram: a graph data model and query languages"
        },
        {
            "paperId": "445514f7e3b9965610d4471eefdb66c977d6e8c8",
            "title": "Integrated Support for Data Archeology"
        },
        {
            "paperId": "06e30cbbbdd552ea9a4ced1877308bd4d21a8483",
            "title": "Flexible queries over semistructured data"
        },
        {
            "paperId": "dd7ae6cb02cd4d5336619251baa1fec7c3b8f20f",
            "title": "Constraint-based Data Mining"
        },
        {
            "paperId": "18ddf63c424db2ae98e0fe4a09e81f8e107de23b",
            "title": "Data Sharing in the Hyperion Peer Database System"
        },
        {
            "paperId": "3dcc5dc2c97b1a75eb19ec00bc6aed080ad54ebb",
            "title": "WebOQL: restructuring documents, databases and Webs"
        },
        {
            "paperId": "7ffcf06a3919f21642e8460125344b8c86bee747",
            "title": "Managing Historical Semistructured Data"
        },
        {
            "paperId": "b37cfb16b31861280ca00c4fbd34d4aa023d69aa",
            "title": "Programming Constructs for Unstructured Data"
        },
        {
            "paperId": "fadd4e73624b16709d446b0b790c6f800017511b",
            "title": "Oracle8i-the XML enabled data management system"
        },
        {
            "paperId": "0891e06d61c187e5e81971d0cb0a1f81ec9d5475",
            "title": "WALRUS: a similarity retrieval algorithm for image databases"
        },
        {
            "paperId": "277fc66c995fe0c5b79e68b328259159cb412c85",
            "title": "TAX: A Tree Algebra for XML"
        },
        {
            "paperId": "badb7ea964ec4c9dffe03aff8eea28bdc7d190ce",
            "title": "Quality-Driven Query Answering for Integrated Information Systems"
        },
        {
            "paperId": "a8450a2666891b0fa6be16d0fa320db25abe9bbb",
            "title": "The Information Manifold"
        }
    ]
}