{
    "total": 31457381,
    "offset": 0,
    "next": 100,
    "data": [
        {
            "paperId": "627be67feb084f1266cfc36e5aed3c3e7e6ce5f0",
            "title": "MapReduce: simplified data processing on large clusters"
        },
        {
            "paperId": "b204970b0503a923359bff532726666f5e0e971b",
            "title": "The SILVA ribosomal RNA gene database project: improved data processing and web-based tools"
        },
        {
            "paperId": "48265726215736f7dd7ceccacac488422032397c",
            "title": "DPABI: Data Processing & Analysis for (Resting-State) Brain Imaging"
        },
        {
            "paperId": "02b1607af35b48f0bd716367caf6a7428b969369",
            "title": "AugMix: A Simple Data Processing Method to Improve Robustness and Uncertainty"
        },
        {
            "paperId": "39602922b04885047254444fd1a1586d797617ce",
            "title": "Optimization of metabolomic data processing using NOREVA"
        },
        {
            "paperId": "bea98dba7790a80c09ceb8112732b6793609086f",
            "title": "First M87 Event Horizon Telescope Results. III. Data Processing and Calibration"
        },
        {
            "paperId": "2880ac931c11176aee6d42a7e7bb0703aacde3f9",
            "title": "Open3D: A Modern Library for 3D Data Processing"
        },
        {
            "paperId": "ada0b87cd5c30d31186c38fb12e631d29426a3bf",
            "title": "Spark SQL: Relational Data Processing in Spark"
        },
        {
            "paperId": "57a3fc6d0aaad3c10c793b4e59390ca04c935282",
            "title": "An Overview of IoT Sensor Data Processing, Fusion, and Analysis Techniques"
        },
        {
            "paperId": "febe776e285dc5e72c7e3ee697a87a794e1c00ff",
            "title": "Privacy-Preserving Data Processing with Flexible Access Control"
        },
        {
            "paperId": "ac91892a8a6b6c3e97aa92b6fa8d54b42cade0ee",
            "title": "Learning scheduling algorithms for data processing clusters"
        },
        {
            "paperId": "1d7531db9272f7838e33616075e1e64532fd013a",
            "title": "The data processing pipeline for the MUSE instrument"
        },
        {
            "paperId": "c15f30a3e84910a28cc560e7db097fd99339e8c1",
            "title": "HiC-Pro: an optimized and flexible pipeline for Hi-C data processing"
        },
        {
            "paperId": "4cf2034fa55a20e60a24ca6924f66aaafb30b877",
            "title": "A complete data processing workflow for CryoET and subtomogram averaging"
        },
        {
            "paperId": "d9a7fa7616a327367696e19b1846519745cd43ff",
            "title": "The Devil Is in the Details: Delving Into Unbiased Data Processing for Human Pose Estimation"
        },
        {
            "paperId": "a9640bac0b45a804d07fc5914feb08af8f2a73f2",
            "title": "Metabolomics Data Processing Using XCMS."
        },
        {
            "paperId": "846883b7761cb5fe4468d42bf9d328b5d1030175",
            "title": "The Zwicky Transient Facility: Data Processing, Products, and Archive"
        },
        {
            "paperId": "82d2b9d09cc339fdeac05abfb8a31f9c6eace948",
            "title": "Untangling Blockchain: A Data Processing View of Blockchain Systems"
        },
        {
            "paperId": "bb826d9ccd116076a267dfcb048cdd747c11b255",
            "title": "Novel frontier of photonics for data processing\u2014Photonic accelerator"
        },
        {
            "paperId": "20d92dc48ab6a52c087ae37eb394acb8f65f28eb",
            "title": "Statistical Data Processing during Wind Generators Operation"
        },
        {
            "paperId": "59c2968fb9672a7152c52127255d8f0784bc2368",
            "title": "Using the ESP32 Microcontroller for Data Processing"
        },
        {
            "paperId": "d35ed1fcab47cf98101dc745c42d3b51dace25eb",
            "title": "Hyperspectral Imaging: A Review on UAV-Based Sensors, Data Processing and Applications for Agriculture and Forestry"
        },
        {
            "paperId": "c1fdfcd4470c65aa1238d3a1719c60672c8a4f5b",
            "title": "Performance Analysis of IoT-Based Sensor, Big Data Processing, and Machine Learning Model for Real-Time Monitoring System in Automotive Manufacturing"
        },
        {
            "paperId": "9181b0d801dfcd7723a3ede201f0543078e2c149",
            "title": "Data processing, multi-omic pathway mapping, and metabolite activity analysis using XCMS Online"
        },
        {
            "paperId": "2f44ab0e52eb98fdfc0086638887f175b6f2fe4b",
            "title": "Benchmarking Distributed Stream Data Processing Systems"
        },
        {
            "paperId": "785a1c77fabd1ad870a9dbc98d235d2fcbdbaa6f",
            "title": "Fog computing: from architecture to edge computing and big data processing"
        },
        {
            "paperId": "1051abf1e3dae90241ad15b3f98f2e41197ee611",
            "title": "A Personalized Healthcare Monitoring System for Diabetic Patients by Utilizing BLE-Based Sensors and Real-Time Data Processing"
        },
        {
            "paperId": "c2a448bb511ebae41a87e69891da8bbf17ddba3d",
            "title": "KAMO: towards automated data processing for microcrystals"
        },
        {
            "paperId": "27245e65a27bde90b5b0bb25d157bb75a0ad8b5a",
            "title": "A survey of machine learning for big data processing"
        },
        {
            "paperId": "1ee1d353d309eef7a74cfaebd4304c09d0f2b0d7",
            "title": "When Computation Hugs Intelligence: Content-Aware Data Processing for Industrial IoT"
        },
        {
            "paperId": "fa63c3f53413ced7946623889c416e34a28676ea",
            "title": "The Dataflow Model: A Practical Approach to Balancing Correctness, Latency, and Cost in Massive-Scale, Unbounded, Out-of-Order Data Processing"
        },
        {
            "paperId": "3ac939c4ada416858e1c1bff9e6f18aaa98323f3",
            "title": "Pig latin: a not-so-foreign language for data processing"
        },
        {
            "paperId": "25ed8ba0e8906ba98fa5d92d17a01e818796ddc9",
            "title": "Data Processing"
        },
        {
            "paperId": "46caf1e20fb6b6455d3465f871e3b00308ebc5b4",
            "title": "[20] Processing of X-ray diffraction data collected in oscillation mode."
        },
        {
            "paperId": "5371896313ac227eb819038dd55f213cb42b99e2",
            "title": "RHEEM: Enabling Cross-Platform Data Processing - May The Big Data Be With You! -"
        },
        {
            "paperId": "a18de38ddcd7bcea14dc82a37d8a0d05d3654522",
            "title": "PTRAJ and CPPTRAJ: Software for Processing and Analysis of Molecular Dynamics Trajectory Data."
        },
        {
            "paperId": "3fadb72fb150197aa5eb88a65b244763fb45ab9b",
            "title": "Multibeam sonar backscatter data processing"
        },
        {
            "paperId": "7da5235a835ab66e6699a5f9adffd34c8c614d48",
            "title": "Electron diffraction data processing with DIALS"
        },
        {
            "paperId": "0fb6718d8697745b21c1b4b8b9db8dd34bb2bbcc",
            "title": "Digital signal processing"
        },
        {
            "paperId": "e712fa43ecb8dcdd439a70e55173291c477453c8",
            "title": "Magnonic crystals for data processing"
        },
        {
            "paperId": "63a604e73af861640cbf711cef8b75fc6d5ccd1e",
            "title": "Nipype: A Flexible, Lightweight and Extensible Neuroimaging Data Processing Framework in Python"
        },
        {
            "paperId": "dc46ba6465e2993e2801b1d0c8e752f63bcad586",
            "title": "Algorithmic Aspects of Parallel Data Processing"
        },
        {
            "paperId": "bede1dead1557c75c8dc6da8b1f70d77d6572607",
            "title": "UAS, sensors, and data processing in agroforestry: a review towards practical applications"
        },
        {
            "paperId": "b594809c33adc92b75bcb87a941941792c797f7c",
            "title": "REST: A Toolkit for Resting-State Functional Magnetic Resonance Imaging Data Processing"
        },
        {
            "paperId": "3a05d5aa6935e6482b0ca2f73797a31f4381e21c",
            "title": "A comparison on scalability for batch big data processing on Apache Spark and Apache Flink"
        },
        {
            "paperId": "763fe590dee9d2fdb44040f7e90f0dbfe39ee7e5",
            "title": "A survey of state management in big data processing systems"
        },
        {
            "paperId": "8bf1e11b7bf477f87ce66d159000133da19bd1b3",
            "title": "A Survey on Geographically Distributed Big-Data Processing Using MapReduce"
        },
        {
            "paperId": "74996abd0cc0bbf34b5cefa39f2899461ad44b27",
            "title": "Focus: The interface between data collection and data processing in cryo-EM."
        },
        {
            "paperId": "851081439f3524dee702158973d3e4dc1a4f8549",
            "title": "Big Data Processing in Cloud Computing Environments"
        },
        {
            "paperId": "14c9c04973ca9bd1cecf0892a9b90a54aa930098",
            "title": "Crail: A High-Performance I/O Architecture for Distributed Data Processing"
        },
        {
            "paperId": "ef90b423bc1e818119d3ac8d32c97659b748ceb6",
            "title": "Overview of the CALIPSO Mission and CALIOP Data Processing Algorithms"
        },
        {
            "paperId": "f96efbad191c388706ce370dd9be5d2c25a7b3dc",
            "title": "Biscuit: A Framework for Near-Data Processing of Big Data Workloads"
        },
        {
            "paperId": "2cf53f58e32ae31ff046b6bdbb11c1e40db9da93",
            "title": "Non-targeted UHPLC-MS metabolomic data processing methods: a comparative investigation of normalisation, missing value imputation, transformation and scaling"
        },
        {
            "paperId": "8c33048fe73dc21b0fd334104f88a2a304aa25ed",
            "title": "Processing of X-ray diffraction data collected in oscillation mode."
        },
        {
            "paperId": "a4956112932bad3321cc2b0c00f8de9d2e391b13",
            "title": "Heterogeneous Medical Data Processing"
        },
        {
            "paperId": "d4a7a67228686975e882fee8d571f8257535e8b7",
            "title": "HRL: Efficient and flexible reconfigurable logic for near-data processing"
        },
        {
            "paperId": "39e223e6b5a6f8727e9f60b8b7c7720dc40a5dbc",
            "title": "The emerging field of signal processing on graphs: Extending high-dimensional data analysis to networks and other irregular domains"
        },
        {
            "paperId": "4ce25286205c62fffda7d685a916cf4508149245",
            "title": "Realtime Data Processing at Facebook"
        },
        {
            "paperId": "2b2eaf0a473ebaf5e4250abb7efb34d4b2265dc6",
            "title": "Trans\u2010Proteomic Pipeline, a standardized data processing pipeline for large\u2010scale reproducible proteomics informatics"
        },
        {
            "paperId": "74d1a281bfb87b8b15187939e18ff57eef5eb5f6",
            "title": "The GOME-2 instrument on the Metop series of satellites: instrument design, calibration, and level 1 data processing \u2013 an overview"
        },
        {
            "paperId": "5fe11d2a85f6733582bececb175e3a9e3173e4a7",
            "title": "Practical Near-Data Processing for In-Memory Analytics Frameworks"
        },
        {
            "paperId": "802fdb1252dddefa7db7c3ceba49d7274e11426c",
            "title": "An Architecture for and Fast and General Data Processing on Large Clusters"
        },
        {
            "paperId": "3b8a890860ea76cabdb4d9dca0522a1c34e08265",
            "title": "QoRTs: a comprehensive toolset for quality control and data processing of RNA-Seq experiments"
        },
        {
            "paperId": "3bd2c0e2ce0e64d7f0f49ce0debd0ee29eec8ad0",
            "title": "Review of multidimensional data processing approaches for Raman and infrared spectroscopy"
        },
        {
            "paperId": "b58725d3935d36685e4002b6a522fdfbf9d8e2a1",
            "title": "Radar Data Processing With Applications"
        },
        {
            "paperId": "36b40e07dbd0fd44e16328154469011b8c1f8b0f",
            "title": "Singular value decomposition for genome-wide expression data processing and modeling."
        },
        {
            "paperId": "add3dbbb3d02a5bbfca6365e39164ca009d79915",
            "title": "The EnMAP-Box - A Toolbox and Application Programming Interface for EnMAP Data Processing"
        },
        {
            "paperId": "499971d6cb198c61b56187d119f2f7859bbbbf2e",
            "title": "The Pan-STARRS Data-processing System"
        },
        {
            "paperId": "1ed8f456a9d95dea1d7a76725a26ffa7bf364311",
            "title": "Strong data-processing inequalities for channels and Bayesian networks"
        },
        {
            "paperId": "12d1ac20ea73943dfae40ef436dac50fdeaebfb4",
            "title": "Data processing pipeline for serial femtosecond crystallography at SACLA1"
        },
        {
            "paperId": "e6b3a677944c7f724ad10ef215120be9b261586c",
            "title": "GFZ Global Multi-GNSS Network and Data Processing Results"
        },
        {
            "paperId": "7920a23376d86c1e1e73e82c770a534ff9bf84b2",
            "title": "Tools and best practices for data processing in allelic expression analysis"
        },
        {
            "paperId": "28c6f5092329c966d82733ee56211bf8b125dea7",
            "title": "The FLUXNET2015 dataset and the ONEFlux processing pipeline for eddy covariance data"
        },
        {
            "paperId": "befb9d95f117153ef11a586fad1a88f14d73bb7b",
            "title": "Performance Modeling and Predictive Scheduling for Distributed Stream Data Processing"
        },
        {
            "paperId": "0fdc029342552729b72e1245a22b60ac96020124",
            "title": "Beyond the Wall: Near-Data Processing for Databases"
        },
        {
            "paperId": "8f2762088033797eae3aeac73c817de6d95675c3",
            "title": "Data Processing Requirements of Industry 4.0 - Use Cases for Big Data Applications"
        },
        {
            "paperId": "f7961fcfa4cf0d21c1fed4d827779770c26e2bf2",
            "title": "Emerging trends and technologies in big data processing"
        },
        {
            "paperId": "5d1d5668c86d6d935c063c21b376a99d077f0c8f",
            "title": "Magnon transistor for all-magnon data processing"
        },
        {
            "paperId": "d6c4fd80d4bfb4b84c1f95c8848bd0fc2f3b06bd",
            "title": "JAFAR: Near-Data Processing for Databases"
        },
        {
            "paperId": "a42689da02c3a5291fbd6746cb6751c7bb224a2c",
            "title": "XCMS: processing mass spectrometry data for metabolite profiling using nonlinear peak alignment, matching, and identification."
        },
        {
            "paperId": "e5d69f92e3b8c6101816f73a31e1cc6dfc417e33",
            "title": "A Review: Data Pre-Processing and Data Augmentation Techniques"
        },
        {
            "paperId": "291b4020f2ea72cc633180102fed8e42fb81203f",
            "title": "Lambda architecture for cost-effective batch and speed big data processing"
        },
        {
            "paperId": "794503ced3fb29e8c996f9e20e783014e5dbe185",
            "title": "Communication lower bounds for statistical estimation problems via a distributed data processing inequality"
        },
        {
            "paperId": "d03820bb0ee8a4b936cc5fd13053588d659ff946",
            "title": "NanoPack: visualizing and processing long-read sequencing data"
        },
        {
            "paperId": "efb9575f5c957b73c640f00950982e618e31a7be",
            "title": "Guidelines for data processing analysis of the International Physical Activity Questionnaire (IPAQ) - Short and long forms"
        },
        {
            "paperId": "dbdf5d81124a5a4d1bcbd6ed996178523c9b4946",
            "title": "Five-Year Wilkinson Microwave Anisotropy Probe (WMAP) Observations: Data Processing, Sky Maps, & Basic Results"
        },
        {
            "paperId": "71ebdd3e1ceac870c1e6793da0a77e8035774bfb",
            "title": "Data Processing System (DPS) software with experimental design, statistical analysis and data mining developed for use in entomological research"
        },
        {
            "paperId": "efc17f18079bb495215b6cac0966e3253c424bc6",
            "title": "Iolite: Freeware for the visualisation and processing of mass spectrometric data"
        },
        {
            "paperId": "b3487782be2620f815f2e6bae1958c3466e16edd",
            "title": "Review of GPS Travel Survey and GPS Data-Processing Methods"
        },
        {
            "paperId": "a68e1f12b430a3361717be8bf35b2415486d074e",
            "title": "Introduction to Ground Penetrating Radar: Inverse Scattering and Data Processing"
        },
        {
            "paperId": "1f7a3e295bd6660c03f157ea7c2e32538be5d64c",
            "title": "Near-Data Processing: Insights from a MICRO-46 Workshop"
        },
        {
            "paperId": "7339c20b5c5ab96260beb5162d38bcd8258461df",
            "title": "MapReduce: a flexible data processing tool"
        },
        {
            "paperId": "595d3ab129312377182a931db40166e7ded1570e",
            "title": "Strong Data Processing Inequalities and  $\\Phi $ -Sobolev Inequalities for Discrete Channels"
        },
        {
            "paperId": "70775788414459393eb6ddcf5dce95aac68721d0",
            "title": "The Spectral Image Processing System (SIPS) - Interactive visualization and analysis of imaging spectrometer data"
        },
        {
            "paperId": "0aaafe741c86e48f7b58376661fb95a121246007",
            "title": "Cost Minimization for Big Data Processing in Geo-Distributed Data Centers"
        },
        {
            "paperId": "3b0cfc0cc3fc3bee835147786c749de5ab1f8ed2",
            "title": "Streaming Big Data Processing in Datacenter Clouds"
        },
        {
            "paperId": "41f144105fff22176f3c11d351901d363cb133ff",
            "title": "Data processing in Fourier transform ion cyclotron resonance mass spectrometry."
        },
        {
            "paperId": "0ef844d26d3efbc7c1ff8975e0ede0fb7200989d",
            "title": "On hypercontractivity and a data processing inequality"
        },
        {
            "paperId": "f5e98585296188ade92aabcc69a10dd07330d3d7",
            "title": "Prominence of MapReduce in Big Data Processing"
        },
        {
            "paperId": "b1fd45a8cd1a110be6983a592e697f4676b21afb",
            "title": "Large Scale and Big Data - Processing and Management"
        }
    ]
}